…
If we want to calculate the percentages, there is some work to do but
eventually we arrive there:

    ##           Protestant Catholic Jewish   None     Other   
    ## Northeast "11.5 %"   "25.0 %" "52.9 %" "18.1 %" "17.6 %"
    ## Midwest   "23.7 %"   "26.5 %" "5.9 %"  "25.4 %" "20.8 %"
    ## South     "47.4 %"   "24.7 %" "21.6 %" "27.5 %" "31.4 %"
    ## West      "17.4 %"   "23.9 %" "19.6 %" "29.1 %" "30.2 %"

Let's work with our data to have the right numbers to plot:

    ## Source: local data frame [24 x 5]
    ## Groups: bigregion [4]
    ## 
    ##    bigregion   religion     N        freq   pct
    ##       <fctr>     <fctr> <int>       <dbl> <dbl>
    ## 1  Northeast Protestant   158 0.323770492  32.4
    ## 2  Northeast   Catholic   162 0.331967213  33.2
    ## 3  Northeast     Jewish    27 0.055327869   5.5
    ## 4  Northeast       None   112 0.229508197  23.0
    ## 5  Northeast      Other    28 0.057377049   5.7
    ## 6  Northeast         NA     1 0.002049180   0.2
    ## 7    Midwest Protestant   325 0.467625899  46.8
    ## 8    Midwest   Catholic   172 0.247482014  24.7
    ## 9    Midwest     Jewish     3 0.004316547   0.4
    ## 10   Midwest       None   157 0.225899281  22.6
    ## # ... with 14 more rows
…
